{
  "$id": "https://example.com/weapon.json_schema.json",
  "$schema": "https://json-schema.org/draft/2020-12/schema",
  "description": "a test json schema for weapon",
  "type": "object",
  "properties": {
    "reload_time": "int",
    "fire_rate": "float"
  },
  "required": ["fire_rate"]
}
