{
  "**": "light tank",

  //Unit

  "unit": {
    "name": "Light Tank",
    "camp": "reds",
    "weight": 2000.0,
    "maxSpeed": 40.0,
    "accSpeed": 10.0,
    "armor": 50,
    "maxFuel": 50.0
  },

  // Combat
  "combat": {
    "defenceRating": 3
  },

  // UnitAICmp
  "unitai": {
    "movingBehavior": {
      "type": "standard",
      "targetLocateRadius": 8,
      "targetPursuitTime": 10
    }
  },


  // Tank
  "tank": {},

  // Turret
  "turret0": {
    "type": "Turret",
    "typename": "lighttank_reds_turret",
    "name": "LT's turret",
    "reloadTime": 10.0,
    "rotSpeed": 35.0,
    "hostedWeapon": "lighttank_reds_gun",  // @to linkedWeapon
    //"mpturret": "pos: (0, 0)"
    "ecs_tag": "main"
  },

  "weapons": [
    {
      "type": "Gun",
      "typename": "lighttank_reds_gun",
      "name": "maingun",
      //"caliber": 76,
      "fireRate": 8,
      "maxShells": 10,
      "maintanceCost": 100,
      "ammo": 10,
      "ammoCharge": 1,
      "ammotype": "76mm_gun_ammo_reds",
      "attackDelay": 0.5,
      "realm": "ground",
      "ammotype":
      {
        "type": "Shell", // Projectile ?
        "typename": "76mm_gun_shell_reds",
        "caliber": 76,
        "cost": 0,
        "moveSpeed": 100,
        "reliability": 0.9,
        "accuracy": 0.8,
        "weight": 9,
		"affectRadius": 1,
		"radius": 10.0,
        "locateRadius": 20.0, 
		"attackRating": 3
      }
    }
  ],

  "view": {
    "turret0": {
      "snd_fire": "fire.ogg",
      "snd_reload": "reload.ogg",
      //"parentNodeName": "body",
      "nodeName": "turret",
      "ecs_tag": "main"
    }
  }
}